35646
87322
138774
192027
241088
292737
343604
392478
441465
493028
541673
589015
637074
688816
736260
782869
830752
878946
953727
1000617
1052363
1099004
1146166
1192721
1244081
1292251
1339247
1387385
1436241
1485538
1535548
1582953
1632283
1680620
1728659
1777506
1827677
1875083
1922223
1968898
2050398
2100325
2148483
2195603
2244898
2296149
2344895
2392311
2441071
2490342
2544464
2595151
2642881
2693847
2740711
2792732
2841514
2889610
2937810
2988265
3036187
3086375
3161706
3211548
3258101
3305999
3356617
3405514
3453280
3501383
3559254
3638500
3686767
3737364
3784905
3831967
3879241
3923633
3970948
4018479
4068118
4115143
4160932
4235880
4284182
4331097
4378631
4428488
4479657
4529260
4577345
4624615
4677313
4726242
4775338
4823321
4869870
4918578
4968454
5014323
5064154
5113477
5161460
5211511
5262863
5337339
5384476
5433595
5482872
5533845
5584958
5632538
5683326
5734504
5782683
5833161
5881517
5928378
5978266
6027672
6076801
6124929
6173471
6224643
6275250
6326402
6377674
6452797
6499483
6550605
6599866
6651113
6701507
6749934
6805407
6854393
6902777
6943484
6990822
7041383
7089084
7139887
7194668
7246080
7294978
7347032
7396532
7444106
7492879
7550204
7599379
7646952
7696327
7745306
7792677
7847665
7895147
7944608
7992969
8042292
8089604
8137320
8184602
8231301
8282488
8328848
8378792
8426148
8476170
8523364
8572994
8651385
8702031
8751599
8798442
8846493
8893845
8948237
9024467
9071181
9119111
9166819
9213949
9260904
9309925
9356533
9407790
9456157
9505279
9554624
9597453
9647142
9694911
9770336
9817550
9864414
9913576
9960492
10007085
10054651
10102208
10149502
10200733
10247156
10294445
10345184
10394620
10443949
10491936
10543803
10594229
10641326
10688246
10738738
10786334
10860796
10908611
10958854
11008966
11059628
11108259
11159076
11206886
11255023
11304080
11352570
11404488
11453216
11507438
11553713
11603758
11653487
11700879
11748267
11799612
11850305
11897748
11969795
12018191
12069389
12117607
12165815
12217071
12267626
12314466
12364448
12408616
12455789
12506454
12556053
12604719
12651598
12702738
12749356
12798171
12845404
12896025
12943480
12992295
13065421
13113520
13164808
13213650
13264421
13311108
13358659
13406180
13459502
13509081
13559713
13608144
13655049
13703467
13750758
13798113
13845487
13894703
13942047
13992579
14039908
14090796
14170513
14222027
14271262
14324846
14400516
14448079
14496216
14546890
14596062
14644831
14691288
14738055
14786691
14834924
14882278
14929355
14978237
15023475
15070716
15118684
15169370
15216967
15291775
15341570
15388741
15435406
15484241
15535739
15583749
15631634
15681563
15729695
15780537
15828088
15874876
15922159
15969212
16019700
16067466
16114932
16162219
16209060
16259319
16317699
16368112
16416250
16467489
16519121
16566083
16615224
16664439
16712998
16762767
16809846
16866206
16913301
16960372
17009957
17058571
17113374
17162477
17211317
17258023
17312918
17364060
17438892
17486890
17535772
17585308
17632831
17681652
17730860
17778186
17828892
17876880
17927760
17977174
18027708
18077147
18126762
18174187
18225107
18273301
18320834
18372184
18421765
18470439
18545778
18597635
18647287
18699033
18748687
18797058
18844725
18894144
18944859
18996508
19043888
19090308
19137684
19188366
19235550
19282620
19330458
19379692
19428987
19477731
19524983
19573240
19649248
19698263
19769594
19816690
19867523
19917429
19968806
20017040
20063103
20111695
20162975
20210065
20260718
20310474
20361160
20408502
20460758
20508204
20555426
20602745
20652771
20725460
20774005
20820561
20871111
20918098
20966516
21014071
21066467
21114144
21163288
21214491
21257527
21307467
21358098
21409013
21455980
21506708
21553917
21602732
21651788
21700406
21754615
21829743
21878562
21929733
21977216
22023141
22071589
22119690
22170967
22220197
22270133
22318546
22441221
22490537
22541068
22582000
22631538
22683085
22730409
22776032
22825287
22873095
22947960
22996766
23043372
23089284
23139661
23187636
23235158
23284093
23332117
23379440
23427710
23477290
23527381
23576156
23628367
23675342
23726809
23775299
23822431
23870389
23921608
23967035
24042843
24090052
24138585
24188204
24226036
24274600
24425901
24531567
24582298
24630298
24679097
24728459
24778734
24826132
24874442
24921691
24972471
25024174
25073096
25163561
25231858
25282006
25331558
25379167
