Index : 1 , mean time in microsec 34633
Index : 5 , mean time in microsec 268781
Index : 10 , mean time in microsec 504355
Index : 15 , mean time in microsec 704399
Index : 20 , mean time in microsec 969889
Index : 25 , mean time in microsec 1215203
Index : 50 , mean time in microsec 2459289
Index : 100 , mean time in microsec 5029171
Index : 150 , mean time in microsec 7514273
Index : 200 , mean time in microsec 10111792
Index : 250 , mean time in microsec 12576618
Index : 300 , mean time in microsec 15043944
Index : 350 , mean time in microsec 17616510
Index : 400 , mean time in microsec 20141736
Index : 450 , mean time in microsec 22834160
Index : 500 , mean time in microsec 25434576
Index : 550 , mean time in microsec 28068677
Index : 600 , mean time in microsec 30835876
Index : 650 , mean time in microsec 33535938
Index : 700 , mean time in microsec 36191529
Index : 750 , mean time in microsec 38940907
Index : 800 , mean time in microsec 41683897
Index : 850 , mean time in microsec 44517897
Index : 900 , mean time in microsec 47220311
Index : 950 , mean time in microsec 49952455
Index : 1000 , mean time in microsec 52695307
Index : 1200 , mean time in microsec 63715833
Index : 1500 , mean time in microsec 80951036
Index : 2000 , mean time in microsec 107977645
Mean of the total time for 2000 connections : 107977645
